Chapter 6 Multi Level Models | Legal Education Analysis in R
…
6.3.3 Example: NY Hate Crime Data

hate <- read_csv("https://assets.datacamp.com/production/repositories/1803/datasets/45e88fe1bc8d1d76d140e69cb873da9eddb7008e/hateNY.csv")

## Parsed with column specification:
## cols(
##   Year = col_double(),
##   County = col_character(),
##   TotalIncidents = col_double(),
##   Year2 = col_double()
## )

hate

## # A tibble: 233 x 4
##     Year County   TotalIncidents Year2
##    <dbl> <chr>             <dbl> <dbl>
##  1  2010 Albany               13     0
##  2  2011 Albany                7     1
##  3  2012 Albany                5     2
##  4  2013 Albany                3     3
##  5  2014 Albany                3     4
##  6  2015 Albany                3     5
##  7  2016 Albany                3     6
##  8  2013 Allegany              1     3
##  9  2010 Bronx                22     0
## 10  2011 Bronx                11     1
## # ... with 223 more rows
…
